-- Name                                 SubName                                 Data_Mask               read_write      Comment
-- Setting                              Setting_b0                              xffffffffffffffff       rw
--------------------------------------------------------------------------------------------------------------------------------------
bmtf_scouting_ctrl_register_offset      bmtf_scouting_ctrl_register_offset      x00000000ffffffff       r

bmtf_stream_enable_mask                 bmtf_stream_enable_mask                 x0000000000ffffff       rw
bmtf_local_reset                        bmtf_local_reset                        x0000000000000001       rw
bmtf_link_map_00                        bmtf_link_map_00                        x000000000000001f       rw
bmtf_link_map_01                        bmtf_link_map_01                        x000000000000001f       rw
bmtf_link_map_02                        bmtf_link_map_02                        x000000000000001f       rw
bmtf_link_map_03                        bmtf_link_map_03                        x000000000000001f       rw
bmtf_link_map_04                        bmtf_link_map_04                        x000000000000001f       rw
bmtf_link_map_05                        bmtf_link_map_05                        x000000000000001f       rw
bmtf_link_map_06                        bmtf_link_map_06                        x000000000000001f       rw
bmtf_link_map_07                        bmtf_link_map_07                        x000000000000001f       rw
bmtf_link_map_08                        bmtf_link_map_08                        x000000000000001f       rw
bmtf_link_map_09                        bmtf_link_map_09                        x000000000000001f       rw
bmtf_link_map_10                        bmtf_link_map_10                        x000000000000001f       rw
bmtf_link_map_11                        bmtf_link_map_11                        x000000000000001f       rw
bmtf_link_map_12                        bmtf_link_map_12                        x000000000000001f       rw
bmtf_link_map_13                        bmtf_link_map_13                        x000000000000001f       rw
bmtf_link_map_14                        bmtf_link_map_14                        x000000000000001f       rw
bmtf_link_map_15                        bmtf_link_map_15                        x000000000000001f       rw
bmtf_link_map_16                        bmtf_link_map_16                        x000000000000001f       rw
bmtf_link_map_17                        bmtf_link_map_17                        x000000000000001f       rw
bmtf_link_map_18                        bmtf_link_map_18                        x000000000000001f       rw
bmtf_link_map_19                        bmtf_link_map_19                        x000000000000001f       rw
bmtf_link_map_20                        bmtf_link_map_20                        x000000000000001f       rw
bmtf_link_map_21                        bmtf_link_map_21                        x000000000000001f       rw
bmtf_link_map_22                        bmtf_link_map_22                        x000000000000001f       rw
bmtf_link_map_23                        bmtf_link_map_23                        x000000000000001f       rw
bmtf_disable_zs                         bmtf_disable_zs                         x0000000000000001       rw
bmtf_orbits_per_packet                  bmtf_orbits_per_packet                  x000000000000ffff       rw
bmtf_orbits_per_chunk                   bmtf_orbits_per_chunk                   x00000000000fffff       rw
bmtf_wait_for_oc1                       bmtf_wait_for_oc1                       x0000000000000001       rw
bmtf_enable_data_gen                    bmtf_enable_data_gen                    x0000000000000001       rw
bmtf_gen_orbit_full_length              bmtf_gen_orbit_full_length              x000000000000ffff       rw
bmtf_gen_orbit_data_length              bmtf_gen_orbit_data_length              x000000000000ffff       rw
bmtf_disable_reshape                    bmtf_disable_reshape                    x0000000000000001       rw
bmtf_scouting_source_id_00              bmtf_scouting_source_id_00              x00000000ffffffff       rw
bmtf_scouting_source_id_01              bmtf_scouting_source_id_01              x00000000ffffffff       rw
bmtf_scouting_source_id_02              bmtf_scouting_source_id_02              x00000000ffffffff       rw
bmtf_scouting_source_id_03              bmtf_scouting_source_id_03              x00000000ffffffff       rw
bmtf_scouting_source_id_04              bmtf_scouting_source_id_04              x00000000ffffffff       rw
bmtf_scouting_source_id_05              bmtf_scouting_source_id_05              x00000000ffffffff       rw
bmtf_scouting_source_id_06              bmtf_scouting_source_id_06              x00000000ffffffff       rw
bmtf_scouting_source_id_07              bmtf_scouting_source_id_07              x00000000ffffffff       rw
bmtf_scouting_source_id_08              bmtf_scouting_source_id_08              x00000000ffffffff       rw
bmtf_scouting_source_id_09              bmtf_scouting_source_id_09              x00000000ffffffff       rw
bmtf_scouting_source_id_10              bmtf_scouting_source_id_10              x00000000ffffffff       rw
bmtf_scouting_source_id_11              bmtf_scouting_source_id_11              x00000000ffffffff       rw

bmtf_scouting_moni_register_offset      bmtf_scouting_moni_register_offset      x00000000ffffffff       r

bmtf_rx_byte_is_aligned_info            bmtf_rx_byte_is_aligned_info            x0000000000ffffff       r
bmtf_gt_power_good_info                 bmtf_gt_power_good_info                 x0000000000ffffff       r
bmtf_cdr_stable_info                    bmtf_cdr_stable_info                    x000000000000003f       r
bmtf_gt_tx_reset_done_info              bmtf_gt_tx_reset_done_info              x000000000000003f       r
bmtf_gt_rx_reset_done_info              bmtf_gt_rx_reset_done_info              x000000000000003f       r
bmtf_gt_reset_tx_pll_datapath_info      bmtf_gt_reset_tx_pll_datapath_info      x0000000000000001       r
bmtf_gt_reset_tx_datapath_info          bmtf_gt_reset_tx_datapath_info          x0000000000000001       r
bmtf_gt_reset_rx_datapath_info          bmtf_gt_reset_rx_datapath_info          x0000000000000001       r
bmtf_gt_init_done_info                  bmtf_gt_init_done_info                  x000000000000003f       r

bmtf_waiting_for_orbit_end_info         bmtf_waiting_for_orbit_end_info         x0000000000000001       r

bmtf_packager_seen_orbits_00            bmtf_packager_seen_orbits_00            x00000000ffffffff       r
bmtf_packager_seen_orbits_01            bmtf_packager_seen_orbits_01            x00000000ffffffff       r
bmtf_packager_seen_orbits_02            bmtf_packager_seen_orbits_02            x00000000ffffffff       r
bmtf_packager_seen_orbits_03            bmtf_packager_seen_orbits_03            x00000000ffffffff       r
bmtf_packager_seen_orbits_04            bmtf_packager_seen_orbits_04            x00000000ffffffff       r
bmtf_packager_seen_orbits_05            bmtf_packager_seen_orbits_05            x00000000ffffffff       r
bmtf_packager_seen_orbits_06            bmtf_packager_seen_orbits_06            x00000000ffffffff       r
bmtf_packager_seen_orbits_07            bmtf_packager_seen_orbits_07            x00000000ffffffff       r
bmtf_packager_seen_orbits_08            bmtf_packager_seen_orbits_08            x00000000ffffffff       r
bmtf_packager_seen_orbits_09            bmtf_packager_seen_orbits_09            x00000000ffffffff       r
bmtf_packager_seen_orbits_10            bmtf_packager_seen_orbits_10            x00000000ffffffff       r
bmtf_packager_seen_orbits_11            bmtf_packager_seen_orbits_11            x00000000ffffffff       r

bmtf_packager_dropped_orbits_00         bmtf_packager_dropped_orbits_00         x00000000ffffffff       r
bmtf_packager_dropped_orbits_01         bmtf_packager_dropped_orbits_01         x00000000ffffffff       r
bmtf_packager_dropped_orbits_02         bmtf_packager_dropped_orbits_02         x00000000ffffffff       r
bmtf_packager_dropped_orbits_03         bmtf_packager_dropped_orbits_03         x00000000ffffffff       r
bmtf_packager_dropped_orbits_04         bmtf_packager_dropped_orbits_04         x00000000ffffffff       r
bmtf_packager_dropped_orbits_05         bmtf_packager_dropped_orbits_05         x00000000ffffffff       r
bmtf_packager_dropped_orbits_06         bmtf_packager_dropped_orbits_06         x00000000ffffffff       r
bmtf_packager_dropped_orbits_07         bmtf_packager_dropped_orbits_07         x00000000ffffffff       r
bmtf_packager_dropped_orbits_08         bmtf_packager_dropped_orbits_08         x00000000ffffffff       r
bmtf_packager_dropped_orbits_09         bmtf_packager_dropped_orbits_09         x00000000ffffffff       r
bmtf_packager_dropped_orbits_10         bmtf_packager_dropped_orbits_10         x00000000ffffffff       r
bmtf_packager_dropped_orbits_11         bmtf_packager_dropped_orbits_11         x00000000ffffffff       r

bmtf_orbit_length_bxs_00                bmtf_orbit_length_bxs_00                x00000000ffffffff       r
bmtf_orbit_length_bxs_01                bmtf_orbit_length_bxs_01                x00000000ffffffff       r
bmtf_orbit_length_bxs_02                bmtf_orbit_length_bxs_02                x00000000ffffffff       r
bmtf_orbit_length_bxs_03                bmtf_orbit_length_bxs_03                x00000000ffffffff       r
bmtf_orbit_length_bxs_04                bmtf_orbit_length_bxs_04                x00000000ffffffff       r
bmtf_orbit_length_bxs_05                bmtf_orbit_length_bxs_05                x00000000ffffffff       r
bmtf_orbit_length_bxs_06                bmtf_orbit_length_bxs_06                x00000000ffffffff       r
bmtf_orbit_length_bxs_07                bmtf_orbit_length_bxs_07                x00000000ffffffff       r
bmtf_orbit_length_bxs_08                bmtf_orbit_length_bxs_08                x00000000ffffffff       r
bmtf_orbit_length_bxs_09                bmtf_orbit_length_bxs_09                x00000000ffffffff       r
bmtf_orbit_length_bxs_10                bmtf_orbit_length_bxs_10                x00000000ffffffff       r
bmtf_orbit_length_bxs_11                bmtf_orbit_length_bxs_11                x00000000ffffffff       r

bmtf_axi_backpressure_seen_info         bmtf_axi_backpressure_seen_info         x0000000000000fff       r
bmtf_orbit_exceeds_size_info            bmtf_orbit_exceeds_size_info            x0000000000000fff       r
bmtf_autorealigns_total                 bmtf_autorealigns_total                 x00000000ffffffff       r

bmtf_algo_version                       bmtf_algo_version                       x0000000000ffffff       r
bmtf_fw_type                            bmtf_fw_type                            x00000000000000ff       r

bmtf_freq_clk_rec_00                    bmtf_freq_clk_rec_00                    x00000000ffffffff       r
bmtf_freq_clk_rec_01                    bmtf_freq_clk_rec_01                    x00000000ffffffff       r
bmtf_freq_clk_rec_02                    bmtf_freq_clk_rec_02                    x00000000ffffffff       r
bmtf_freq_clk_rec_03                    bmtf_freq_clk_rec_03                    x00000000ffffffff       r
bmtf_freq_clk_rec_04                    bmtf_freq_clk_rec_04                    x00000000ffffffff       r
bmtf_freq_clk_rec_05                    bmtf_freq_clk_rec_05                    x00000000ffffffff       r
bmtf_freq_clk_rec_06                    bmtf_freq_clk_rec_06                    x00000000ffffffff       r
bmtf_freq_clk_rec_07                    bmtf_freq_clk_rec_07                    x00000000ffffffff       r
bmtf_freq_clk_rec_08                    bmtf_freq_clk_rec_08                    x00000000ffffffff       r
bmtf_freq_clk_rec_09                    bmtf_freq_clk_rec_09                    x00000000ffffffff       r
bmtf_freq_clk_rec_10                    bmtf_freq_clk_rec_10                    x00000000ffffffff       r
bmtf_freq_clk_rec_11                    bmtf_freq_clk_rec_11                    x00000000ffffffff       r
bmtf_freq_clk_rec_12                    bmtf_freq_clk_rec_12                    x00000000ffffffff       r
bmtf_freq_clk_rec_13                    bmtf_freq_clk_rec_13                    x00000000ffffffff       r
bmtf_freq_clk_rec_14                    bmtf_freq_clk_rec_14                    x00000000ffffffff       r
bmtf_freq_clk_rec_15                    bmtf_freq_clk_rec_15                    x00000000ffffffff       r
bmtf_freq_clk_rec_16                    bmtf_freq_clk_rec_16                    x00000000ffffffff       r
bmtf_freq_clk_rec_17                    bmtf_freq_clk_rec_17                    x00000000ffffffff       r
bmtf_freq_clk_rec_18                    bmtf_freq_clk_rec_18                    x00000000ffffffff       r
bmtf_freq_clk_rec_19                    bmtf_freq_clk_rec_19                    x00000000ffffffff       r
bmtf_freq_clk_rec_20                    bmtf_freq_clk_rec_20                    x00000000ffffffff       r
bmtf_freq_clk_rec_21                    bmtf_freq_clk_rec_21                    x00000000ffffffff       r
bmtf_freq_clk_rec_22                    bmtf_freq_clk_rec_22                    x00000000ffffffff       r
bmtf_freq_clk_rec_23                    bmtf_freq_clk_rec_23                    x00000000ffffffff       r

bmtf_crc_error_counter_00               bmtf_crc_error_counter_00               x00000000ffffffff       r
bmtf_crc_error_counter_01               bmtf_crc_error_counter_01               x00000000ffffffff       r
bmtf_crc_error_counter_02               bmtf_crc_error_counter_02               x00000000ffffffff       r
bmtf_crc_error_counter_03               bmtf_crc_error_counter_03               x00000000ffffffff       r
bmtf_crc_error_counter_04               bmtf_crc_error_counter_04               x00000000ffffffff       r
bmtf_crc_error_counter_05               bmtf_crc_error_counter_05               x00000000ffffffff       r
bmtf_crc_error_counter_06               bmtf_crc_error_counter_06               x00000000ffffffff       r
bmtf_crc_error_counter_07               bmtf_crc_error_counter_07               x00000000ffffffff       r
bmtf_crc_error_counter_08               bmtf_crc_error_counter_08               x00000000ffffffff       r
bmtf_crc_error_counter_09               bmtf_crc_error_counter_09               x00000000ffffffff       r
bmtf_crc_error_counter_10               bmtf_crc_error_counter_10               x00000000ffffffff       r
bmtf_crc_error_counter_11               bmtf_crc_error_counter_11               x00000000ffffffff       r
bmtf_crc_error_counter_12               bmtf_crc_error_counter_12               x00000000ffffffff       r
bmtf_crc_error_counter_13               bmtf_crc_error_counter_13               x00000000ffffffff       r
bmtf_crc_error_counter_14               bmtf_crc_error_counter_14               x00000000ffffffff       r
bmtf_crc_error_counter_15               bmtf_crc_error_counter_15               x00000000ffffffff       r
bmtf_crc_error_counter_16               bmtf_crc_error_counter_16               x00000000ffffffff       r
bmtf_crc_error_counter_17               bmtf_crc_error_counter_17               x00000000ffffffff       r
bmtf_crc_error_counter_18               bmtf_crc_error_counter_18               x00000000ffffffff       r
bmtf_crc_error_counter_19               bmtf_crc_error_counter_19               x00000000ffffffff       r
bmtf_crc_error_counter_20               bmtf_crc_error_counter_20               x00000000ffffffff       r
bmtf_crc_error_counter_21               bmtf_crc_error_counter_21               x00000000ffffffff       r
bmtf_crc_error_counter_22               bmtf_crc_error_counter_22               x00000000ffffffff       r
bmtf_crc_error_counter_23               bmtf_crc_error_counter_23               x00000000ffffffff       r
