{
    "sb852_ugmtnn": {
        "driver": "/dev/pico1",
        "registers": {
            "reset_board": {
                "width": 32,
                "address": "0x104",
                "offset": 0,
                "metric": "gauge",
                "writable": true,
                "exposable": true
            },
            "link_enable": {
                "width": 32,
                "address": "0x108",
                "offset": 0,
                "metric": "gauge",
                "writable": true,
                "exposable": true
            },
            "hb_gtwiz_reset_all": {
                "width": 32,
                "address": "0x10c",
                "offset": 0,
                "metric": "gauge",
                "writable": true,
                "exposable": true
            },
            "trigger_bril_readout": {
                "width": 32,
                "address": "0x124",
                "offset": 0,
                "metric": "gauge",
                "writable": true,
                "exposable": true
            },
            "disable_zs": {
                "width": 32,
                "address": "0x11c",
                "offset": 0,
                "metric": "gauge",
                "writable": true,
                "exposable": true
            },
            "orbits_per_packet": {
                "width": 32,
                "address": "0x120",
                "offset": 0,
                "metric": "gauge",
                "writable": true,
                "exposable": true
            },
            "deadbeef": {
                "width": 32,
                "address": "0x4",
                "offset": 0,
                "metric": "gauge",
                "writable": false,
                "exposable": true
            },
            "blocked_readout": {
                "width": 32,
                "address": "0x8",
                "offset": 0,
                "metric": "gauge",
                "writable": false,
                "exposable": true
            },
            "frequency_mgtrefclk_hertz": {
                "width": 32,
                "address": "0xc",
                "offset": 0,
                "metric": "gauge",
                "writable": false,
                "exposable": true
            },
            "axi_backpressure_seen": {
                "width": 32,
                "address": "0x14",
                "offset": 0,
                "metric": "gauge",
                "writable": false,
                "exposable": true
            },
            "autorealign_counter": {
                "width": 32,
                "address": "0x18",
                "offset": 0,
                "metric": "gauge",
                "writable": false,
                "exposable": true
            },
            "orbit_length": {
                "width": 32,
                "address": "0x1c",
                "offset": 0,
                "metric": "gauge",
                "writable": false,
                "exposable": true
            },
            "filler_orbit_counter": {
                "width": 32,
                "address": "0x20",
                "offset": 0,
                "metric": "gauge",
                "writable": false,
                "exposable": true
            },
            "filler_dropped_orbit_counter": {
                "width": 32,
                "address": "0x24",
                "offset": 0,
                "metric": "gauge",
                "writable": false,
                "exposable": true
            },
            "rx_byte_is_aligned_info": {
                "width": 32,
                "address": "0x28",
                "offset": 0,
                "metric": "gauge",
                "writable": false,
                "exposable": true
            },
            "cdr_stable_info": {
                "width": 32,
                "address": "0x2c",
                "offset": 0,
                "metric": "gauge",
                "writable": false,
                "exposable": true
            },
            "algo_version": {
                "width": 32,
                "address": "0x30",
                "offset": 0,
                "metric": "gauge",
                "writable": false,
                "exposable": true
            },
            "fw_type": {
                "width": 32,
                "address": "0x34",
                "offset": 0,
                "metric": "gauge",
                "writable": false,
                "exposable": true
            },
            "freq_linkclk_hertz": {
                "width": 32,
                "address": "0x38",
                "offset": 0,
                "metric": "gauge",
                "writable": false,
                "exposable": true
            }
        }
    }
}

